{"results":[{"vote_count":224,"id":353081,"video":false,"vote_average":7.6,"title":"Mission: Impossible - Fallout","popularity":445.872,"poster_path":"\/AkJQpZp9WoNdj7pLYSj1L0RcMMN.jpg","original_language":"en","original_title":"Mission: Impossible - Fallout","genre_ids":[12,28,53],"backdrop_path":"\/5qxePyMYDisLe8rJiBYX8HKEyv2.jpg","adult":false,"overview":"When an IMF mission ends badly, the world is faced with dire consequences. As Ethan Hunt takes it upon himself to fulfil his original briefing, the CIA begin to question his loyalty and his motives. The IMF team find themselves in a race against time, hunted by assassins while trying to prevent a global catastrophe.","release_date":"2018-07-25"},{"vote_count":2247,"id":351286,"video":false,"vote_average":6.6,"title":"Jurassic World: Fallen Kingdom","popularity":259.199,"poster_path":"\/c9XxwwhPHdaImA2f1WEfEsbhaFB.jpg","original_language":"en","original_title":"Jurassic World: Fallen Kingdom","genre_ids":[28,12,878],"backdrop_path":"\/3s9O5af2xWKWR5JzP2iJZpZeQQg.jpg","adult":false,"overview":"Several years after the demise of Jurassic World, a volcanic eruption threatens the remaining dinosaurs on the island of Isla Nublar. Claire Dearing, the former park manager and founder of the Dinosaur Protection Group, recruits Owen Grady to help prevent the extinction of the dinosaurs once again.","release_date":"2018-06-06"},{"vote_count":900,"id":363088,"video":false,"vote_average":7,"title":"Ant-Man and the Wasp","popularity":129.518,"poster_path":"\/rv1AWImgx386ULjcf62VYaW8zSt.jpg","original_language":"en","original_title":"Ant-Man and the Wasp","genre_ids":[28,12,14,35,878],"backdrop_path":"\/6P3c80EOm7BodndGBUAJHHsHKrp.jpg","adult":false,"overview":"As Scott Lang awaits expiration of his term of house detention, Hope van Dyne and Dr. Hank Pym involve him in a scheme to rescue Mrs. van Dyne from the micro-universe into which she has fallen, while two groups of schemers converge on them with intentions of stealing Dr. Pym's inventions.","release_date":"2018-07-04"},{"vote_count":374,"id":442249,"video":false,"vote_average":6.2,"title":"The First Purge","popularity":80.109,"poster_path":"\/2slvblTroiT1lY9bYLK7Amigo1k.jpg","original_language":"en","original_title":"The First Purge","genre_ids":[28,27,878,53],"backdrop_path":"\/dnaitaoCh8MftfYEVnprcuYExZp.jpg","adult":false,"overview":"To push the crime rate below one percent for the rest of the year, the New Founding Fathers of America test a sociological theory that vents aggression for one night in one isolated community. But when the violence of oppressors meets the rage of the others, the contagion will explode from the trial-city borders and spread across the nation.","release_date":"2018-07-04"},{"vote_count":1435,"id":260513,"video":false,"vote_average":7.7,"title":"Incredibles 2","popularity":78.652,"poster_path":"\/x1txcDXkcM65gl7w20PwYSxAYah.jpg","original_language":"en","original_title":"Incredibles 2","genre_ids":[28,12,16,10751],"backdrop_path":"\/mabuNsGJgRuCTuGqjFkWe1xdu19.jpg","adult":false,"overview":"Elastigirl springs into action to save the day, while Mr. Incredible faces his greatest challenge yet – taking care of the problems of his three children.","release_date":"2018-06-14"},{"vote_count":2422,"id":447332,"video":false,"vote_average":7.2,"title":"A Quiet Place","popularity":76.659,"poster_path":"\/nAU74GmpUk7t5iklEp3bufwDq4n.jpg","original_language":"en","original_title":"A Quiet Place","genre_ids":[18,27,53,878],"backdrop_path":"\/tZmr0ozxSc2GasRuddtlRkf7f68.jpg","adult":false,"overview":"A family is forced to live in silence while hiding from creatures that hunt by sound.","release_date":"2018-04-03"},{"vote_count":7,"id":476292,"video":false,"vote_average":5.7,"title":"Maquia: When the Promised Flower Blooms","popularity":72.398,"poster_path":"\/vOrK1n6VgVCFBwgcq5tMoPCqa47.jpg","original_language":"ja","original_title":"さよならの朝に約束の花をかざろう","genre_ids":[16],"backdrop_path":"\/cfbjFQ14hSTgXChBEvaEjFiUaKb.jpg","adult":false,"overview":"A story of encounters and partings interwoven between people; this is a human drama with feelings that touch one's heart gradually, which everyone has experienced at least once.","release_date":"2018-02-24"},{"vote_count":139,"id":400579,"video":false,"vote_average":6.9,"title":"Tully","popularity":69.618,"poster_path":"\/wDI4YXBXolMYi15Qx2kClvdSERM.jpg","original_language":"en","original_title":"Tully","genre_ids":[35,18],"backdrop_path":"\/h4Z6IUpTyD9ViV7NLmbAEbgM1G0.jpg","adult":false,"overview":"Marlo, a mother of three including a newborn, is gifted a night nanny by her brother. Hesitant to the extravagance at first, Marlo comes to form a bond with the thoughtful, surprising, and sometimes challenging nanny named Tully.","release_date":"2018-05-04"},{"vote_count":12,"id":493006,"video":false,"vote_average":4.7,"title":"Detective Conan: Zero the Enforcer","popularity":68.783,"poster_path":"\/mMWV5MXn2pkDnnI4vWpy3dRWdNC.jpg","original_language":"ja","original_title":"名探偵コナン ゼロの執行人","genre_ids":[16,80,9648,28,18],"backdrop_path":"\/kEqeponciiz6TyuKWtnKSzXzbGa.jpg","adult":false,"overview":"There is a sudden explosion at Tokyo Summit's giant Edge of Ocean facility. The shadow of Tōru Amuro, who works for the National Police Agency Security Bureau as Zero, appears at the site. In addition, the \"triple-face\" character is known as Rei Furuya as a detective and Kogorō Mōri's apprentice, and he is also known as Bourbon as a Black Organization member. Kogorō is arrested as a suspect in the case of the explosion. Conan conducts an investigation to prove Kogorō's innocence, but Amuro gets in his way.","release_date":"2018-04-13"},{"vote_count":239,"id":447200,"video":false,"vote_average":6.2,"title":"Skyscraper","popularity":55.843,"poster_path":"\/3NL1FiTEhU4SWOuWk8lkVCbmnYm.jpg","original_language":"en","original_title":"Skyscraper","genre_ids":[28,53,18],"backdrop_path":"\/oMKFQmoVgB69fyXfSMu0lGlHJP2.jpg","adult":false,"overview":"Framed and on the run, a former FBI agent must save his family from a blazing fire in the world's tallest building.","release_date":"2018-07-11"},{"vote_count":223,"id":400155,"video":false,"vote_average":6.9,"title":"Hotel Transylvania 3: Summer Vacation","popularity":51.587,"poster_path":"\/gjAFM4xhA5vyLxxKMz38ujlUfDL.jpg","original_language":"en","original_title":"Hotel Transylvania 3: Summer Vacation","genre_ids":[10751,14,35,16],"backdrop_path":"\/m03jul0YdVEOFXEQVUv6pOVQYGL.jpg","adult":false,"overview":"Dracula, Mavis, Johnny and the rest of the Drac Pack take a vacation on a luxury Monster Cruise Ship, where Dracula falls in love with the ship's captain, Ericka, who's secretly a descendant of Abraham Van Helsing, the notorious monster slayer.","release_date":"2018-06-30"},{"vote_count":85,"id":345887,"video":false,"vote_average":6.4,"title":"The Equalizer 2","popularity":47.727,"poster_path":"\/cQvc9N6JiMVKqol3wcYrGshsIdZ.jpg","original_language":"en","original_title":"The Equalizer 2","genre_ids":[53,28,80],"backdrop_path":"\/a24i4Qw6qFTtkFLQsncv8WPwevj.jpg","adult":false,"overview":"Robert McCall returns to deliver his special brand of vigilante justice -- but how far will he go when it's someone he loves?","release_date":"2018-07-19"},{"vote_count":131,"id":454619,"video":false,"vote_average":6,"title":"Overboard","popularity":42.744,"poster_path":"\/qauHzSQJdo9VYX4NKn9PdWnvXOV.jpg","original_language":"en","original_title":"Overboard","genre_ids":[10749,35],"backdrop_path":"\/1c9UOyJP0FnhhdNoEvhI3ODcE3i.jpg","adult":false,"overview":"A spoiled, wealthy yacht owner is thrown overboard and becomes the target of revenge from his mistreated employee. A remake of the 1987 comedy.","release_date":"2018-05-03"},{"vote_count":159,"id":458423,"video":false,"vote_average":7.7,"title":"Mamma Mia! Here We Go Again","popularity":41.634,"poster_path":"\/aWicerX4Y7n7tUwRAVHsVcBBpj2.jpg","original_language":"en","original_title":"Mamma Mia! Here We Go Again","genre_ids":[35,10749,10402],"backdrop_path":"\/8HKwxHZ23sW8wz4yb28IWnAM1M6.jpg","adult":false,"overview":"On the Greek island of Kalokairi, the daughter of Donna Sheridan, Sophie, finds out more about her mother's past while seeking guidance on how to handle her pregnancy.","release_date":"2018-07-18"},{"vote_count":1258,"id":348350,"video":false,"vote_average":6.8,"title":"Solo: A Star Wars Story","popularity":37.508,"poster_path":"\/4oD6VEccFkorEBTEDXtpLAaz0Rl.jpg","original_language":"en","original_title":"Solo: A Star Wars Story","genre_ids":[28,12,878],"backdrop_path":"\/7LZ0K4FsALrt7OeNIGOVLNuKQRU.jpg","adult":false,"overview":"Through a series of daring escapades deep within a dark and dangerous criminal underworld, Han Solo meets his mighty future copilot Chewbacca and encounters the notorious gambler Lando Calrissian.","release_date":"2018-05-23"},{"vote_count":1385,"id":449176,"video":false,"vote_average":8.2,"title":"Love, Simon","popularity":37.282,"poster_path":"\/5YUYg5q7QfC4IoNwNUtiwdiYKPr.jpg","original_language":"en","original_title":"Love, Simon","genre_ids":[35,18,10749],"backdrop_path":"\/rqMEeajyzSF4PpJtdCB816Iz8Vr.jpg","adult":false,"overview":"Everyone deserves a great love story. But for seventeen-year old Simon Spier it's a little more complicated: he's yet to tell his family or friends he's gay and he doesn't know the identity of the anonymous classmate he's fallen for online.","release_date":"2018-02-16"},{"vote_count":0,"id":487258,"video":false,"vote_average":0,"title":"Marainthirunthu Paarkum Marmam Enna","popularity":34.154,"poster_path":"\/hLNQYT8dD4gWSqTp4cEI9M9ho5Y.jpg","original_language":"ta","original_title":"மறைந்திருந்து பார்க்கும் மர்மம் என்ன","genre_ids":[10751,80,10749],"backdrop_path":"\/lp2fC1MPUc8bCmDxJ8uXLvecyby.jpg","adult":false,"overview":"Marainthirunthu Paarkum Marmam Enna is an upcoming tamil movie. The film has a bunch of newcomers with Sharanya Ponvannan, JD Chakravarthy, Radharavi and Manobala playing key roles.","release_date":"2018-07-27"},{"vote_count":526,"id":407451,"video":false,"vote_average":5.1,"title":"A Wrinkle in Time","popularity":32.823,"poster_path":"\/yAcb58vipewa1BfNit2RjE6boXA.jpg","original_language":"en","original_title":"A Wrinkle in Time","genre_ids":[12,878,10751,14],"backdrop_path":"\/zqUaMojohr96itJYCE3W1NauTn7.jpg","adult":false,"overview":"After the disappearance of her scientist father, three peculiar beings send Meg, her brother, and her friend to space in order to find him.","release_date":"2018-03-08"},{"vote_count":682,"id":402900,"video":false,"vote_average":6.8,"title":"Ocean's Eight","popularity":32.496,"poster_path":"\/MvYpKlpFukTivnlBhizGbkAe3v.jpg","original_language":"en","original_title":"Ocean's Eight","genre_ids":[80,35,28,53],"backdrop_path":"\/zBIfBeStaDdDdhBrSx8InhgFUVa.jpg","adult":false,"overview":"Debbie Ocean, a criminal mastermind, gathers a crew of seven other female thieves to pull off the heist of the century at New York's annual Met Gala.","release_date":"2018-06-07"},{"vote_count":689,"id":399174,"video":false,"vote_average":7.9,"title":"Isle of Dogs","popularity":32.376,"poster_path":"\/rSluCePdXXtNiQeE6Na5yRGamhL.jpg","original_language":"en","original_title":"Isle of Dogs","genre_ids":[12,35,16],"backdrop_path":"\/5YtXsLG9ncjjFyGZjoeV31CGf01.jpg","adult":false,"overview":"In the future, an outbreak of canine flu leads the mayor of a Japanese city to banish all dogs to an island that's a garbage dump. The outcasts must soon embark on an epic journey when a 12-year-old boy arrives on the island to find his beloved pet.","release_date":"2018-03-23"}],"page":1,"total_results":869,"dates":{"maximum":"2018-07-28","minimum":"2018-06-10"},"total_pages":44}